<?xml version="1.0" encoding="UTF-8"?>
<svg width="40px" height="41px" viewBox="0 0 40 41" version="1.1" xmlns="http://www.w3.org/2000/svg" xmlns:xlink="http://www.w3.org/1999/xlink">
    <!-- Generator: Sketch 51.2 (57519) - http://www.bohemiancoding.com/sketch -->
    <title>file</title>
    <desc>Created with Sketch.</desc>
    <defs>
        <polygon id="path-1" points="0 0 32.0017021 0 32.0017021 40.8 0 40.8"></polygon>
    </defs>
    <g id="desktop" stroke="none" stroke-width="1" fill="none" fill-rule="evenodd">
        <g id="homepage_category_v2" transform="translate(-221.000000, -825.000000)">
            <g id="file" transform="translate(221.000000, 825.000000)">
                <path d="M24.5114894,14.9804255 L7.49021277,14.9804255 C7.11404255,14.9804255 6.80851064,15.2825532 6.80851064,15.6578723 C6.80851064,16.0340426 7.11404255,16.3395745 7.49021277,16.3395745 L24.5114894,16.3395745 C24.8868085,16.3395745 25.1931915,16.0340426 25.1931915,15.6578723 C25.1931915,15.2825532 24.8868085,14.9804255 24.5114894,14.9804255 Z" id="Fill-1" fill="#E29423"></path>
                <path d="M7.49021277,10.8944681 L14.2987234,10.8944681 C14.6740426,10.8944681 14.9804255,10.5880851 14.9804255,10.212766 C14.9804255,9.83744681 14.6740426,9.53106383 14.2987234,9.53106383 L7.49021277,9.53106383 C7.11404255,9.53106383 6.80851064,9.83744681 6.80851064,10.212766 C6.80851064,10.5880851 7.11404255,10.8944681 7.49021277,10.8944681 Z" id="Fill-2" fill="#E29423"></path>
                <path d="M24.5114894,20.4255319 L7.49021277,20.4255319 C7.11404255,20.4255319 6.80851064,20.7310638 6.80851064,21.107234 C6.80851064,21.4825532 7.11404255,21.7889362 7.49021277,21.7889362 L24.5114894,21.7889362 C24.8868085,21.7889362 25.1931915,21.4825532 25.1931915,21.107234 C25.1931915,20.7310638 24.8868085,20.4255319 24.5114894,20.4255319 Z" id="Fill-3" fill="#E29423"></path>
                <path d="M19.0621277,25.8706383 L7.49021277,25.8706383 C7.11404255,25.8706383 6.80851064,26.1770213 6.80851064,26.5523404 C6.80851064,26.9285106 7.11404255,27.2340426 7.49021277,27.2340426 L19.0621277,27.2340426 C19.4382979,27.2340426 19.7438298,26.9285106 19.7438298,26.5523404 C19.7438298,26.1770213 19.4382979,25.8706383 19.0621277,25.8706383 Z" id="Fill-4" fill="#E29423"></path>
                <g id="Group-8">
                    <mask id="mask-2" fill="white">
                        <use xlink:href="#path-1"></use>
                    </mask>
                    <g id="Clip-6"></g>
                    <path d="M17.0212766,32.6791489 C17.3965957,32.6791489 17.7029787,32.3770213 17.7029787,32.0017021 C17.7029787,31.6255319 17.3965957,31.32 17.0212766,31.32 L7.49021277,31.32 C7.11404255,31.32 6.80851064,31.6255319 6.80851064,32.0017021 C6.80851064,32.3770213 7.11404255,32.6791489 7.49021277,32.6791489 L17.0212766,32.6791489 Z" id="Fill-5" fill="#E29423" mask="url(#mask-2)"></path>
                    <path d="M1.36340426,1.36340426 L21.107234,1.36340426 L21.107234,10.8944681 L30.6382979,10.8944681 L30.6382979,23.1480851 L32.0017021,23.1480851 L32.0017021,9.93021277 L22.0680851,0 L0,0 L0,40.8510638 L19.7438298,40.8510638 L19.7438298,39.4876596 L1.36340426,39.4876596 L1.36340426,1.36340426 Z M22.466383,2.32340426 L29.6740426,9.53106383 L22.466383,9.53106383 L22.466383,2.32340426 Z" id="Fill-7" fill="#E29423" mask="url(#mask-2)"></path>
                </g>
                <path d="M39.2782979,25.3021277 L37.3370213,23.3608511 C36.5693617,22.5931915 35.2297872,22.5931915 34.4612766,23.3608511 L23.9829787,33.84 L22.5395745,39.1353191 L22.187234,39.4876596 C21.9217021,39.7540426 21.9217021,40.1795745 22.1804255,40.4451064 L22.1778723,40.4587234 L22.1906383,40.4553191 C22.3234043,40.5855319 22.4970213,40.6519149 22.666383,40.6519149 C22.8425532,40.6519149 23.0153191,40.5855319 23.1480851,40.4519149 L23.5004255,40.0995745 L28.8,38.653617 L39.2782979,28.1744681 C39.6612766,27.7923404 39.8740426,27.2808511 39.8740426,26.7387234 C39.8740426,26.1931915 39.6612766,25.6851064 39.2782979,25.3021277 Z M25.5548936,34.1923404 L32.5302128,27.2204255 L35.4187234,30.1097872 L28.4442553,37.0808511 L25.5548936,34.1923404 Z M24.9404255,35.5055319 L27.1344681,37.6961702 L24.1191489,38.5174468 L24.9404255,35.5055319 Z M38.3148936,27.2144681 L36.3795745,29.1455319 L33.493617,26.2570213 L35.4255319,24.3251064 C35.6782979,24.0689362 36.12,24.0689362 36.372766,24.3251064 L38.3148936,26.2629787 C38.4408511,26.3897872 38.5106383,26.5591489 38.5106383,26.7387234 C38.5106383,26.9182979 38.4408511,27.0876596 38.3148936,27.2144681 Z" id="Fill-9" fill="#E29423"></path>
            </g>
        </g>
    </g>
</svg>