<?xml version="1.0" encoding="UTF-8"?>
<svg width="20px" height="20px" viewBox="0 0 20 20" version="1.1" xmlns="http://www.w3.org/2000/svg" xmlns:xlink="http://www.w3.org/1999/xlink">
    <!-- Generator: Sketch 51.2 (57519) - http://www.bohemiancoding.com/sketch -->
    <title>success</title>
    <desc>Created with Sketch.</desc>
    <defs></defs>
    <g id="desktop" stroke="none" stroke-width="1" fill="none" fill-rule="evenodd">
        <g id="home_-_investment_property_Loans" transform="translate(-807.000000, -4045.000000)" fill="#E0F4C8" stroke="#026532">
            <path d="M817,4045.5 C822.238452,4045.5 826.5,4049.76155 826.5,4055 C826.5,4060.23845 822.238452,4064.5 817,4064.5 C811.761548,4064.5 807.5,4060.23845 807.5,4055 C807.5,4049.76155 811.761548,4045.5 817,4045.5 Z M821.642662,4051.66597 L821.643344,4051.66521 C821.713569,4051.58652 821.706307,4051.46463 821.626877,4051.39375 C821.547411,4051.32319 821.425618,4051.33027 821.355567,4051.40917 L815.937736,4057.50371 L815.567082,4057.20726 L812.618758,4054.84921 C812.536717,4054.78341 812.416323,4054.79669 812.349913,4054.88009 C812.283324,4054.96315 812.296723,4055.08474 812.378535,4055.15036 L815.837869,4057.91697 C815.875463,4057.94671 815.917717,4057.96137 815.96029,4057.96137 C816.015231,4057.96137 816.068261,4057.93801 816.105764,4057.89601 L821.642662,4051.66597 Z M822.389829,4052.33061 C822.3897,4052.33075 822.389571,4052.3309 822.389442,4052.33104 L822.390125,4052.33028 L822.389829,4052.33061 Z" id="success"></path>
        </g>
    </g>
</svg>