<?xml version="1.0" encoding="UTF-8"?>
<svg width="61px" height="60px" viewBox="0 0 61 60" version="1.1" xmlns="http://www.w3.org/2000/svg" xmlns:xlink="http://www.w3.org/1999/xlink">
    <!-- Generator: Sketch 51.2 (57519) - http://www.bohemiancoding.com/sketch -->
    <title>question-mark</title>
    <desc>Created with Sketch.</desc>
    <defs>
        <polygon id="path-1" points="0.0426923077 0.569230769 36.4300577 0.569230769 36.4300577 36.9992885 0.0426923077 36.9992885"></polygon>
    </defs>
    <g id="desktop" stroke="none" stroke-width="1" fill="none" fill-rule="evenodd">
        <g id="guide_page" transform="translate(-551.000000, -8693.000000)">
            <g id="question-mark" transform="translate(551.000000, 8693.000000)">
                <ellipse id="Oval" fill="#E0F4C8" cx="30.5" cy="30" rx="30.5" ry="30"></ellipse>
                <g id="question-2" stroke-width="1" transform="translate(12.000000, 12.000000)">
                    <path d="M19.3424615,29.2364038 C19.3424615,29.8646923 18.8308654,30.3762885 18.2025769,30.3762885 C17.5742885,30.3762885 17.0655385,29.8646923 17.0655385,29.2364038 C17.0655385,28.6081154 17.5742885,28.0993654 18.2025769,28.0993654 C18.8308654,28.0993654 19.3424615,28.6081154 19.3424615,29.2364038 Z" id="Fill-1" fill="#0B8E51"></path>
                    <g id="Group-5">
                        <mask id="mask-2" fill="white">
                            <use xlink:href="#path-1"></use>
                        </mask>
                        <g id="Clip-3"></g>
                        <path d="M17.9499808,8.18482692 C14.3809038,8.18482692 12.1658846,10.4026923 12.1658846,13.9689231 C12.1658846,14.2855577 12.4184808,14.5388654 12.7351154,14.5388654 C13.0496154,14.5388654 13.3022115,14.2855577 13.3022115,13.9689231 C13.3022115,11.0174615 14.9978077,9.32471154 17.9499808,9.32471154 C22.4326731,9.32471154 23.1029423,12.5515385 23.1029423,14.4776731 C23.1029423,16.3483077 21.5631731,18.4772308 19.5253269,19.4306923 C17.2156731,20.5065385 17.6191154,24.2833846 17.6383269,24.4449038 C17.6717692,24.7366346 17.9165385,24.9508077 18.2025769,24.9508077 C18.2246346,24.9508077 18.2474038,24.9479615 18.2666154,24.9451154 C18.5804038,24.9088269 18.8059615,24.6277692 18.7696731,24.3168269 C18.7639808,24.2833846 18.4558846,21.1846346 20.0063269,20.4617115 C22.4604231,19.3168462 24.2392692,16.7987115 24.2392692,14.4776731 C24.2392692,10.5364615 21.8883462,8.18482692 17.9499808,8.18482692 Z" id="Fill-2" fill="#0B8E51" mask="url(#mask-2)"></path>
                        <path d="M18.2168077,0.569230769 C8.15494231,0.569230769 0,8.72417308 0,18.7860385 C0,28.8443462 8.15494231,36.9992885 18.2168077,36.9992885 C28.2751154,36.9992885 36.4300577,28.8443462 36.4300577,18.7860385 C36.4300577,8.72417308 28.2751154,0.569230769 18.2168077,0.569230769 Z M18.2168077,35.8629615 C8.79959615,35.8629615 1.13988462,28.1996923 1.13988462,18.7860385 C1.13988462,9.36882692 8.79959615,1.70911538 18.2168077,1.70911538 C27.6304615,1.70911538 35.2937308,9.36882692 35.2937308,18.7860385 C35.2937308,28.1996923 27.6304615,35.8629615 18.2168077,35.8629615 Z" id="Fill-4" fill="#0B8E51" mask="url(#mask-2)"></path>
                    </g>
                </g>
            </g>
        </g>
    </g>
</svg>