<?xml version="1.0" encoding="UTF-8"?>
<svg width="100px" height="111px" viewBox="0 0 100 111" version="1.1" xmlns="http://www.w3.org/2000/svg" xmlns:xlink="http://www.w3.org/1999/xlink">
    <!-- Generator: Sketch 51.2 (57519) - http://www.bohemiancoding.com/sketch -->
    <title>shield</title>
    <desc>Created with Sketch.</desc>
    <defs>
        <polygon id="path-1" points="0.0129032258 0 99.9036559 0 99.9036559 110.107527 0.0129032258 110.107527"></polygon>
    </defs>
    <g id="Page-1" stroke="none" stroke-width="1" fill="none" fill-rule="evenodd">
        <g id="homepage_desktop" transform="translate(-370.000000, -4265.000000)">
            <g id="Group-9" transform="translate(370.000000, 4265.000000)">
                <g id="shield">
                    <g id="Group-3">
                        <mask id="mask-2" fill="white">
                            <use xlink:href="#path-1"></use>
                        </mask>
                        <g id="Clip-2"></g>
                        <path d="M49.951828,110.107527 C79.9937634,98.8692473 99.9036559,70.1636559 99.9036559,38.0888172 L99.9036559,18.6486022 C89.6043011,18.6486022 81.2550538,10.2993548 81.2550538,0 L18.6486022,0 C18.6486022,10.2993548 10.2993548,18.6486022 0,18.6486022 L0,38.0886022 C0,70.1636559 19.9098925,98.8692473 49.951828,110.107527" id="Fill-1" fill="#FFD44F" mask="url(#mask-2)"></path>
                    </g>
                    <path d="M49.951828,110.107527 C79.9937634,98.8692473 99.9036559,70.1636559 99.9036559,38.0888172 L99.9036559,18.6486022 C89.6043011,18.6486022 81.2550538,10.2993548 81.2550538,0 L49.951828,0 C49.951828,0 49.951828,85.5913978 49.951828,110.107527" id="Fill-4" fill="#F9C629"></path>
                    <polyline id="Fill-5" fill="#FFFFFF" points="42.9931183 74.4690323 26.4335484 57.9096774 35.5574194 48.7855914 42.9931183 56.2212903 64.3462366 34.868172 73.4701075 43.992043 42.9931183 74.4690323"></polyline>
                    <polyline id="Fill-6" fill="#F2EEE0" points="49.951828 67.5103226 49.951828 49.2625806 64.3462366 34.868172 73.4701075 43.992043 49.951828 67.5103226"></polyline>
                </g>
            </g>
        </g>
    </g>
</svg>