<?xml version="1.0" encoding="UTF-8"?>
<svg width="40px" height="41px" viewBox="0 0 40 41" version="1.1" xmlns="http://www.w3.org/2000/svg" xmlns:xlink="http://www.w3.org/1999/xlink">
    <!-- Generator: Sketch 51.2 (57519) - http://www.bohemiancoding.com/sketch -->
    <title>list-5</title>
    <desc>Created with Sketch.</desc>
    <defs>
        <polygon id="path-1" points="0.0545454545 0.301818182 39.2718182 0.301818182 39.2718182 39.5736364 0.0545454545 39.5736364"></polygon>
    </defs>
    <g id="desktop" stroke="none" stroke-width="1" fill="none" fill-rule="evenodd">
        <g id="energy_homepage_category" transform="translate(-859.000000, -1085.000000)">
            <g id="list-5" transform="translate(859.000000, 1085.000000)">
                <path d="M39.8436364,29.35 C39.5563636,26.3781818 37.3363636,24.2227273 34.5563636,24.2227273 C32.8163636,24.2227273 31.3527273,25.2772727 30.4227273,26.5590909 C29.4954545,25.2772727 28.0327273,24.2227273 26.2890909,24.2227273 C23.5118182,24.2227273 21.2927273,26.3781818 21.0018182,29.35 C20.9727273,29.5454545 20.8981818,30.2381818 21.1645455,31.3209091 C21.5627273,32.9190909 22.4754545,34.3681818 23.8072727,35.5181818 L29.8681818,40.7063636 C30.0281818,40.8418182 30.2272727,40.9090909 30.4227273,40.9090909 C30.6218182,40.9090909 30.82,40.8381818 30.9836364,40.7027273 L37.0418182,35.5145455 C38.37,34.3718182 39.2827273,32.9190909 39.68,31.3209091 C39.95,30.2381818 39.8754545,29.5454545 39.8436364,29.35 Z M38.2709091,30.9690909 C37.9472727,32.2763636 37.1945455,33.4654545 36.0936364,34.4136364 L30.4227273,39.2645455 L24.7545455,34.4136364 C23.6545455,33.4654545 22.9009091,32.2763636 22.5781818,30.9690909 C22.3581818,30.0890909 22.44,29.5918182 22.4363636,29.5918182 L22.45,29.5136364 C22.6281818,27.6063636 24.0054545,25.6781818 26.2927273,25.6781818 C27.8836364,25.6781818 29.18,26.9954545 29.7581818,28.2990909 L30.4263636,29.7972727 L31.09,28.2990909 C31.6690909,26.9954545 32.9654545,25.6781818 34.56,25.6781818 C36.8463636,25.6781818 38.2209091,27.61 38.4090909,29.5809091 C38.4090909,29.5845455 38.4909091,30.0854545 38.2709091,30.9690909 Z" id="Fill-1" fill="#7FBD34"></path>
                <path d="M19.6381818,9.03090909 C19.2327273,9.03090909 18.91,9.35363636 18.91,9.75454545 C18.91,10.16 19.2327273,10.4827273 19.6381818,10.4827273 L32.7272727,10.4827273 C33.1281818,10.4827273 33.4554545,10.16 33.4554545,9.75454545 C33.4554545,9.35363636 33.1281818,9.03090909 32.7272727,9.03090909 L19.6381818,9.03090909 Z" id="Fill-2" fill="#7FBD34"></path>
                <path d="M33.4554545,19.94 C33.4554545,19.5345455 33.1281818,19.2118182 32.7272727,19.2118182 L19.6381818,19.2118182 C19.2327273,19.2118182 18.91,19.5345455 18.91,19.94 C18.91,20.3409091 19.2327273,20.6636364 19.6381818,20.6636364 L32.7272727,20.6636364 C33.1281818,20.6636364 33.4554545,20.3409091 33.4554545,19.94 Z" id="Fill-3" fill="#7FBD34"></path>
                <path d="M14.9681818,5.56818182 C14.6627273,5.30545455 14.2045455,5.34090909 13.9418182,5.64636364 L9.39636364,10.9481818 L6.61909091,8.86363636 C6.3,8.62181818 5.84181818,8.68636364 5.6,9.00909091 C5.35909091,9.32909091 5.42636364,9.78363636 5.74545455,10.0245455 L9.07,12.5181818 C9.20090909,12.6172727 9.35363636,12.6636364 9.50636364,12.6636364 C9.71272727,12.6636364 9.91454545,12.5781818 10.06,12.4109091 L15.0463636,6.59090909 C15.3090909,6.28909091 15.2736364,5.83090909 14.9681818,5.56818182 Z" id="Fill-4" fill="#7FBD34"></path>
                <path d="M14.9681818,15.7490909 C14.6627273,15.49 14.2045455,15.5218182 13.9418182,15.8272727 L9.39636364,21.1290909 L6.61909091,19.0445455 C6.3,18.8036364 5.84181818,18.8672727 5.6,19.19 C5.35909091,19.51 5.42636364,19.9681818 5.74545455,20.2063636 L9.07,22.7027273 C9.20090909,22.7981818 9.35363636,22.8481818 9.50636364,22.8481818 C9.71272727,22.8481818 9.91454545,22.7590909 10.06,22.5927273 L15.0463636,16.7754545 C15.3090909,16.47 15.2736364,16.0118182 14.9681818,15.7490909 Z" id="Fill-5" fill="#7FBD34"></path>
                <g id="Group-9">
                    <mask id="mask-2" fill="white">
                        <use xlink:href="#path-1"></use>
                    </mask>
                    <g id="Clip-7"></g>
                    <path d="M13.9418182,26.7363636 L9.39636364,32.0381818 L6.61909091,29.9536364 C6.3,29.7127273 5.84181818,29.7763636 5.6,30.0990909 C5.35909091,30.4190909 5.42636364,30.8772727 5.74545455,31.1154545 L9.07,33.6118182 C9.20090909,33.7072727 9.35363636,33.7572727 9.50636364,33.7572727 C9.71272727,33.7572727 9.91454545,33.6681818 10.06,33.5018182 L15.0463636,27.6845455 C15.3090909,27.3790909 15.2736364,26.9209091 14.9681818,26.6581818 C14.6627273,26.3990909 14.2045455,26.4309091 13.9418182,26.7363636 Z" id="Fill-6" fill="#7ABA2C" mask="url(#mask-2)"></path>
                    <path d="M18.1818182,38.1218182 L8.85636364,38.1218182 C4.77636364,38.1218182 1.45636364,34.8009091 1.45636364,30.7209091 L1.45636364,9.15818182 C1.45636364,5.07454545 4.77636364,1.75818182 8.85636364,1.75818182 L30.4190909,1.75818182 C34.4990909,1.75818182 37.82,5.07454545 37.82,9.15818182 L37.82,22.12 C37.82,22.5209091 38.1427273,22.8481818 38.5436364,22.8481818 C38.9490909,22.8481818 39.2718182,22.5209091 39.2718182,22.12 L39.2718182,9.15818182 C39.2718182,4.27545455 35.3018182,0.301818182 30.4190909,0.301818182 L8.85636364,0.301818182 C3.97363636,0.301818182 0,4.27545455 0,9.15818182 L0,30.7209091 C0,35.6036364 3.97363636,39.5736364 8.85636364,39.5736364 L18.1818182,39.5736364 C18.5827273,39.5736364 18.91,39.2509091 18.91,38.8454545 C18.91,38.4445455 18.5827273,38.1218182 18.1818182,38.1218182 Z" id="Fill-8" fill="#7ABA2C" mask="url(#mask-2)"></path>
                </g>
            </g>
        </g>
    </g>
</svg>