<?xml version="1.0" encoding="UTF-8"?>
<svg width="40px" height="44px" viewBox="0 0 40 44" version="1.1" xmlns="http://www.w3.org/2000/svg" xmlns:xlink="http://www.w3.org/1999/xlink">
    <!-- Generator: Sketch 51.2 (57519) - http://www.bohemiancoding.com/sketch -->
    <title>idea</title>
    <desc>Created with Sketch.</desc>
    <defs>
        <polygon id="path-1" points="0.06 0.999 40 0.999 40 2.601 0.06 2.601"></polygon>
    </defs>
    <g id="Page-1" stroke="none" stroke-width="1" fill="none" fill-rule="evenodd">
        <g id="homepage_desktop" transform="translate(-219.000000, -1006.000000)">
            <g id="idea" transform="translate(219.000000, 1006.000000)">
                <path d="M20,7.198 C12.5,7.198 6.398,13.3 6.398,20.8 C6.398,26.491 9.914,31.53 15.199,33.519 L15.199,40.8 C15.199,41.241 15.559,41.601 16,41.601 L16.801,41.601 L16.801,43.198 C16.801,43.644 17.156,43.999 17.602,43.999 L22.398,43.999 C22.844,43.999 23.199,43.644 23.199,43.198 L23.199,41.601 L24,41.601 C24.441,41.601 24.801,41.241 24.801,40.8 L24.801,33.519 C30.086,31.53 33.602,26.491 33.602,20.8 C33.602,13.3 27.5,7.198 20,7.198 Z M22.398,39.999 C21.957,39.999 21.602,40.359 21.602,40.8 L21.602,42.402 L18.398,42.402 L18.398,40.8 C18.398,40.359 18.043,39.999 17.602,39.999 L16.801,39.999 L16.801,35.999 L23.199,35.999 L23.199,39.999 L22.398,39.999 Z M23.75,32.195 C23.422,32.3 23.199,32.609 23.199,32.952 L23.199,34.402 L16.801,34.402 L16.801,32.952 C16.801,32.609 16.578,32.3 16.25,32.195 C11.316,30.57 8,25.991 8,20.8 C8,14.183 13.383,8.8 20,8.8 C26.617,8.8 32,14.183 32,20.8 C32,25.991 28.684,30.57 23.75,32.195 Z" id="Fill-1" fill="#9D6C92"></path>
                <path d="M20,5.601 C20.441,5.601 20.801,5.241 20.801,4.8 L20.801,1.601 C20.801,1.159 20.441,0.8 20,0.8 C19.559,0.8 19.199,1.159 19.199,1.601 L19.199,4.8 C19.199,5.241 19.559,5.601 20,5.601 Z" id="Fill-2" fill="#9D6C92"></path>
                <g id="Group-6" transform="translate(0.000000, 19.000000)">
                    <mask id="mask-2" fill="white">
                        <use xlink:href="#path-1"></use>
                    </mask>
                    <g id="Clip-4"></g>
                    <path d="M39.199,0.999 L36,0.999 C35.559,0.999 35.199,1.359 35.199,1.8 C35.199,2.241 35.559,2.601 36,2.601 L39.199,2.601 C39.641,2.601 40,2.241 40,1.8 C40,1.359 39.641,0.999 39.199,0.999 Z" id="Fill-3" fill="#9D6C92" mask="url(#mask-2)"></path>
                    <path d="M4,0.999 L0.801,0.999 C0.359,0.999 0,1.359 0,1.8 C0,2.241 0.359,2.601 0.801,2.601 L4,2.601 C4.441,2.601 4.801,2.241 4.801,1.8 C4.801,1.359 4.441,0.999 4,0.999 Z" id="Fill-5" fill="#9D6C92" mask="url(#mask-2)"></path>
                </g>
                <path d="M33.012,6.659 L30.75,8.921 C30.438,9.234 30.438,9.737 30.75,10.05 C30.906,10.206 31.109,10.284 31.312,10.284 C31.52,10.284 31.723,10.206 31.879,10.05 L34.141,7.788 C34.457,7.476 34.457,6.972 34.141,6.659 C33.828,6.343 33.324,6.347 33.012,6.659 Z" id="Fill-7" fill="#9D6C92"></path>
                <path d="M8.121,31.55 L5.859,33.812 C5.543,34.124 5.543,34.628 5.859,34.941 C6.012,35.097 6.219,35.175 6.422,35.175 C6.629,35.175 6.832,35.097 6.988,34.941 L9.25,32.679 C9.562,32.366 9.562,31.862 9.25,31.55 C8.938,31.237 8.434,31.237 8.121,31.55 Z" id="Fill-8" fill="#9D6C92"></path>
                <path d="M31.879,31.55 C31.566,31.237 31.062,31.237 30.75,31.55 C30.438,31.862 30.438,32.366 30.75,32.679 L33.012,34.941 C33.168,35.097 33.371,35.175 33.578,35.175 C33.781,35.175 33.988,35.097 34.141,34.941 C34.457,34.628 34.457,34.124 34.141,33.812 L31.879,31.55 Z" id="Fill-9" fill="#9D6C92"></path>
                <path d="M8.121,10.05 C8.277,10.206 8.48,10.284 8.688,10.284 C8.891,10.284 9.094,10.206 9.25,10.05 C9.562,9.737 9.562,9.234 9.25,8.921 L6.988,6.659 C6.676,6.343 6.172,6.343 5.859,6.659 C5.543,6.972 5.543,7.476 5.859,7.788 L8.121,10.05 Z" id="Fill-10" fill="#9D6C92"></path>
                <path d="M20,11.198 C14.707,11.198 10.398,15.507 10.398,20.8 C10.398,21.241 10.758,21.601 11.199,21.601 C11.641,21.601 12,21.241 12,20.8 C12,16.39 15.59,12.8 20,12.8 C20.441,12.8 20.801,12.441 20.801,11.999 C20.801,11.558 20.441,11.198 20,11.198 Z" id="Fill-11" fill="#9D6C92"></path>
            </g>
        </g>
    </g>
</svg>