<?xml version="1.0" encoding="UTF-8"?>
<svg width="40px" height="40px" viewBox="0 0 40 40" version="1.1" xmlns="http://www.w3.org/2000/svg" xmlns:xlink="http://www.w3.org/1999/xlink">
    <!-- Generator: Sketch 51.2 (57519) - http://www.bohemiancoding.com/sketch -->
    <title>map</title>
    <desc>Created with Sketch.</desc>
    <defs>
        <polygon id="path-1" points="0.0533333333 0.0142222222 39.8352028 0.0142222222 39.8352028 39.1111111 0.0533333333 39.1111111"></polygon>
    </defs>
    <g id="desktop" stroke="none" stroke-width="1" fill="none" fill-rule="evenodd">
        <g id="home_loans_homepage_category" transform="translate(-539.000000, -845.000000)">
            <g id="map" transform="translate(539.000000, 845.000000)">
                <mask id="mask-2" fill="white">
                    <use xlink:href="#path-1"></use>
                </mask>
                <g id="Clip-2"></g>
                <path d="M39.6391111,37.9066667 L35.392,33.4693333 C36.6355556,32.104 37.3991111,30.2986667 37.3991111,28.3128889 C37.3991111,24.08 33.9546667,20.6355556 29.7226667,20.6355556 C25.4897778,20.6355556 22.0453333,24.08 22.0453333,28.3128889 C22.0453333,32.5448889 25.4897778,35.9893333 29.7226667,35.9893333 C31.4586667,35.9893333 33.056,35.4026667 34.344,34.4275556 L38.6115556,38.8924444 C38.7502222,39.0382222 38.9377778,39.1111111 39.1253333,39.1111111 C39.3022222,39.1111111 39.4791111,39.0453333 39.6142222,38.9137778 C39.8995556,38.6426667 39.9093333,38.1911111 39.6391111,37.9066667 Z M23.4648889,28.3128889 C23.4648889,24.8648889 26.2746667,22.056 29.7226667,22.056 C33.1697778,22.056 35.976,24.8648889 35.976,28.3128889 C35.976,31.7608889 33.1697778,34.5662222 29.7226667,34.5662222 C26.2746667,34.5662222 23.4648889,31.7608889 23.4648889,28.3128889 Z" id="Fill-1" fill="#4E9FE9" mask="url(#mask-2)"></path>
                <path d="M18.7671111,32.7813333 L14.2222222,30.8337778 L14.2222222,1.90666667 L24.8888889,7.552 L24.8888889,17.7884444 C24.8888889,18.184 25.208,18.5004444 25.6008889,18.5004444 C25.9928889,18.5004444 26.3128889,18.184 26.3128889,17.7884444 L26.3128889,7.60088889 L36.9795556,3.20888889 L36.9795556,20.6355556 C36.9795556,21.0275556 37.2951111,21.3475556 37.6871111,21.3475556 C38.0835556,21.3475556 38.3991111,21.0275556 38.3991111,20.6355556 L38.3991111,2.14577778 C38.3991111,1.91022222 38.2808889,1.688 38.0835556,1.55555556 C37.8888889,1.424 37.6391111,1.39911111 37.4168889,1.48977778 L25.6391111,6.34044444 L13.8435556,0.0942222222 C13.8328889,0.0906666667 13.8266667,0.0906666667 13.816,0.0835555556 C13.7813333,0.0693333333 13.7466667,0.056 13.7084444,0.0453333333 C13.6906667,0.0382222222 13.6702222,0.0311111111 13.6524444,0.0275555556 C13.6106667,0.0213333333 13.5733333,0.0177777778 13.5351111,0.0177777778 C13.5137778,0.0142222222 13.4968889,0.0142222222 13.4755556,0.0142222222 C13.4408889,0.0177777778 13.4062222,0.0248888889 13.3715556,0.0311111111 C13.3475556,0.0346666667 13.3226667,0.0382222222 13.2986667,0.0453333333 C13.2951111,0.0453333333 13.2915556,0.0453333333 13.288,0.0488888889 L0.486222222,4.31644444 C0.194666667,4.41333333 0,4.68444444 0,4.98933333 L0,35.5697778 C0,35.7955556 0.111111111,36.0106667 0.295111111,36.1457778 C0.416888889,36.2328889 0.562666667,36.2782222 0.712,36.2782222 C0.788444444,36.2782222 0.861333333,36.2675556 0.937777778,36.2435556 L13.4791111,32.0631111 L18.208,34.0871111 C18.2986667,34.1288889 18.3955556,34.1457778 18.4897778,34.1457778 C18.7635556,34.1457778 19.0275556,33.9831111 19.1422222,33.7155556 C19.2986667,33.3546667 19.1288889,32.9377778 18.7671111,32.7813333 Z M1.424,5.504 L12.7982222,1.712 L12.7982222,30.7884444 L1.424,34.5804444 L1.424,5.504 Z" id="Fill-3" fill="#4E9FE9" mask="url(#mask-2)"></path>
            </g>
        </g>
    </g>
</svg>