<?xml version="1.0" encoding="UTF-8"?>
<svg width="47px" height="46px" viewBox="0 0 47 46" version="1.1" xmlns="http://www.w3.org/2000/svg" xmlns:xlink="http://www.w3.org/1999/xlink">
    <!-- Generator: Sketch 51.2 (57519) - http://www.bohemiancoding.com/sketch -->
    <title>shopping-basket</title>
    <desc>Created with Sketch.</desc>
    <defs>
        <polygon id="path-1" points="0.0055078125 0.00597256747 46.2166973 0.00597256747 46.2166973 26.665676 0.0055078125 26.665676"></polygon>
    </defs>
    <g id="desktop" stroke="none" stroke-width="1" fill="none" fill-rule="evenodd">
        <g id="home_loans_homepage_category" transform="translate(-852.000000, -408.000000)">
            <g id="shopping-basket" transform="translate(852.000000, 408.000000)">
                <path d="M16.45,41.5630051 C16.0176367,41.5630051 15.6666973,41.2117263 15.6666973,40.7789449 L15.6666973,29.8016415 C15.6666973,29.3687682 16.0176367,29.0174893 16.45,29.0174893 C16.8823633,29.0174893 17.2333027,29.3687682 17.2333027,29.8016415 L17.2333027,40.7789449 C17.2333027,41.2117263 16.8823633,41.5630051 16.45,41.5630051" id="Fill-1" fill="#E36E6F"></path>
                <path d="M21.15,41.5630051 C20.7176367,41.5630051 20.3666973,41.2117263 20.3666973,40.7789449 L20.3666973,29.8016415 C20.3666973,29.3687682 20.7176367,29.0174893 21.15,29.0174893 C21.5823633,29.0174893 21.9333027,29.3687682 21.9333027,29.8016415 L21.9333027,40.7789449 C21.9333027,41.2117263 21.5823633,41.5630051 21.15,41.5630051" id="Fill-2" fill="#E36E6F"></path>
                <path d="M25.85,41.5630051 C25.4176367,41.5630051 25.0666973,41.2117263 25.0666973,40.7789449 L25.0666973,29.8016415 C25.0666973,29.3687682 25.4176367,29.0174893 25.85,29.0174893 C26.2823633,29.0174893 26.6333027,29.3687682 26.6333027,29.8016415 L26.6333027,40.7789449 C26.6333027,41.2117263 26.2823633,41.5630051 25.85,41.5630051" id="Fill-3" fill="#E36E6F"></path>
                <path d="M30.55,41.5630051 C30.1176367,41.5630051 29.7666973,41.2117263 29.7666973,40.7789449 L29.7666973,29.8016415 C29.7666973,29.3687682 30.1176367,29.0174893 30.55,29.0174893 C30.9823633,29.0174893 31.3333027,29.3687682 31.3333027,29.8016415 L31.3333027,40.7789449 C31.3333027,41.2117263 30.9823633,41.5630051 30.55,41.5630051" id="Fill-4" fill="#E36E6F"></path>
                <path d="M38.3832109,45.4833984 L8.61651367,45.4833984 C8.25694531,45.4833984 7.94364258,45.2380637 7.85671094,44.889909 L3.15671094,26.0717272 C3.09796094,25.837235 3.15120312,25.5886843 3.29927148,25.3989404 C3.44807422,25.2084615 3.67527148,25.0970961 3.91651367,25.0970961 L43.0832109,25.0970961 C43.3244531,25.0970961 43.5523848,25.2084615 43.7004531,25.3989404 C43.8492559,25.5886843 43.9017637,25.837235 43.8430137,26.0717272 L39.1430137,44.889909 C39.056082,45.2380637 38.7426875,45.4833984 38.3832109,45.4833984 Z M9.22824805,43.9152779 L37.7713848,43.9152779 L42.0796875,26.6652166 L4.91994531,26.6652166 L9.22824805,43.9152779 Z" id="Fill-5" fill="#E36E6F"></path>
                <g id="Group-11">
                    <mask id="mask-2" fill="white">
                        <use xlink:href="#path-1"></use>
                    </mask>
                    <g id="Clip-7"></g>
                    <path d="M45.4333027,26.665676 L1.56669727,26.665676 C1.13424219,26.665676 0.783302734,26.3143972 0.783302734,25.8815239 L0.783302734,21.1769784 C0.783302734,20.74337 1.13424219,20.3929181 1.56669727,20.3929181 L45.4333027,20.3929181 C45.8664922,20.3929181 46.2166973,20.74337 46.2166973,21.1769784 L46.2166973,25.8815239 C46.2166973,26.3143972 45.8664922,26.665676 45.4333027,26.665676 Z M2.35,25.0974636 L44.65,25.0974636 L44.65,21.9611306 L2.35,21.9611306 L2.35,25.0974636 Z" id="Fill-6" fill="#E36E6F" mask="url(#mask-2)"></path>
                    <path d="M25.85,18.8243382 L21.15,18.8243382 C20.7176367,18.8243382 20.3666973,18.4730593 20.3666973,18.0402779 L20.3666973,7.84712669 L17.2333027,7.84712669 C16.9168789,7.84712669 16.6309316,7.65572887 16.5095762,7.36325684 C16.3881289,7.07004972 16.4555078,6.73292125 16.6794922,6.50862837 L22.9461895,0.235870472 C23.2524238,-0.0706600675 23.7475762,-0.0706600675 24.0538105,0.235870472 L30.3205078,6.50862837 C30.5444922,6.73292125 30.6118711,7.07004972 30.4904238,7.36325684 C30.3690684,7.65572887 30.0831211,7.84712669 29.7666973,7.84712669 L26.6333027,7.84712669 L26.6333027,18.0402779 C26.6333027,18.4730593 26.2823633,18.8243382 25.85,18.8243382 Z M21.9333027,17.2561257 L25.0666973,17.2561257 L25.0666973,7.06297452 C25.0666973,6.63019309 25.4176367,6.27891424 25.85,6.27891424 L27.8756816,6.27891424 L23.5,1.8990008 L19.1243184,6.27891424 L21.15,6.27891424 C21.5823633,6.27891424 21.9333027,6.63019309 21.9333027,7.06297452 L21.9333027,17.2561257 Z" id="Fill-8" fill="#E36E6F" mask="url(#mask-2)"></path>
                    <path d="M17.2333027,21.9606712 C17.0328184,21.9606712 16.8322422,21.8838548 16.6794922,21.730957 L4.92949219,9.96959339 C4.62325781,9.66306286 4.62325781,9.16752353 4.92949219,8.8609011 C5.23581836,8.55437056 5.73087891,8.55437056 6.03711328,8.8609011 L17.7871133,20.6222647 C18.0934395,20.9288872 18.0934395,21.4244265 17.7871133,21.730957 C17.6343633,21.8838548 17.4338789,21.9606712 17.2333027,21.9606712" id="Fill-9" fill="#E36E6F" mask="url(#mask-2)"></path>
                    <path d="M3.13330273,10.1993075 C1.40531836,10.1993075 0,8.79272195 0,7.06297452 C0,5.33331898 1.40531836,3.92664151 3.13330273,3.92664151 C4.86137891,3.92664151 6.26669727,5.33331898 6.26669727,7.06297452 C6.26669727,8.79272195 4.86137891,10.1993075 3.13330273,10.1993075 M3.13330273,5.49485396 C2.26931055,5.49485396 1.56669727,6.19814675 1.56669727,7.06297452 C1.56669727,7.92780229 2.26931055,8.63118697 3.13330273,8.63118697 C3.99738672,8.63118697 4.7,7.92780229 4.7,7.06297452 C4.7,6.19814675 3.99738672,5.49485396 3.13330273,5.49485396" id="Fill-10" fill="#E36E6F" mask="url(#mask-2)"></path>
                </g>
                <path d="M29.7666973,21.9606712 C29.5661211,21.9606712 29.3656367,21.8838548 29.2128867,21.730957 C28.9065605,21.4244265 28.9065605,20.9288872 29.2128867,20.6222647 L40.9628867,8.8609011 C41.2691211,8.55437056 41.7641816,8.55437056 42.0705078,8.8609011 C42.3767422,9.16752353 42.3767422,9.66306286 42.0705078,9.96959339 L30.3205078,21.730957 C30.1677578,21.8838548 29.9671816,21.9606712 29.7666973,21.9606712" id="Fill-12" fill="#E36E6F"></path>
                <path d="M43.8666973,10.1993075 C42.1386211,10.1993075 40.7333027,8.79272195 40.7333027,7.06297452 C40.7333027,5.33331898 42.1386211,3.92664151 43.8666973,3.92664151 C45.5946816,3.92664151 47,5.33331898 47,7.06297452 C47,8.79272195 45.5946816,10.1993075 43.8666973,10.1993075 M43.8666973,5.49485396 C43.0026133,5.49485396 42.3,6.19814675 42.3,7.06297452 C42.3,7.92780229 43.0026133,8.63118697 43.8666973,8.63118697 C44.7306895,8.63118697 45.4333027,7.92780229 45.4333027,7.06297452 C45.4333027,6.19814675 44.7306895,5.49485396 43.8666973,5.49485396" id="Fill-13" fill="#E36E6F"></path>
            </g>
        </g>
    </g>
</svg>