<?xml version="1.0" encoding="UTF-8"?>
<svg width="47px" height="49px" viewBox="0 0 47 49" version="1.1" xmlns="http://www.w3.org/2000/svg" xmlns:xlink="http://www.w3.org/1999/xlink">
    <!-- Generator: Sketch 51.2 (57519) - http://www.bohemiancoding.com/sketch -->
    <title>shopping-basket-3</title>
    <desc>Created with Sketch.</desc>
    <defs>
        <polygon id="path-1" points="0.0056969697 0.0889676768 46.9936384 0.0889676768 46.9936384 26.0161616 0.0056969697 26.0161616"></polygon>
    </defs>
    <g id="desktop" stroke="none" stroke-width="1" fill="none" fill-rule="evenodd">
        <g id="home_loans_homepage_category" transform="translate(-532.000000, -406.000000)">
            <g id="shopping-basket-3" transform="translate(532.000000, 406.000000)">
                <path d="M16.2047455,44.5629313 C15.7574384,44.5629313 15.3944465,44.1999394 15.3944465,43.7527273 L15.3944465,32.409396 C15.3944465,31.9621838 15.7574384,31.5991919 16.2047455,31.5991919 C16.6519576,31.5991919 17.0149495,31.9621838 17.0149495,32.409396 L17.0149495,43.7527273 C17.0149495,44.1999394 16.6519576,44.5629313 16.2047455,44.5629313" id="Fill-1" fill="#E36E6F"></path>
                <path d="M21.0661596,44.5629313 C20.6188525,44.5629313 20.2558606,44.1999394 20.2558606,43.7527273 L20.2558606,32.409396 C20.2558606,31.9621838 20.6188525,31.5991919 21.0661596,31.5991919 C21.5133717,31.5991919 21.8763636,31.9621838 21.8763636,32.409396 L21.8763636,43.7527273 C21.8763636,44.1999394 21.5133717,44.5629313 21.0661596,44.5629313" id="Fill-2" fill="#E36E6F"></path>
                <path d="M25.9275737,44.5629313 C25.4802667,44.5629313 25.1172747,44.1999394 25.1172747,43.7527273 L25.1172747,32.409396 C25.1172747,31.9621838 25.4802667,31.5991919 25.9275737,31.5991919 C26.3747859,31.5991919 26.7377778,31.9621838 26.7377778,32.409396 L26.7377778,43.7527273 C26.7377778,44.1999394 26.3747859,44.5629313 25.9275737,44.5629313" id="Fill-3" fill="#E36E6F"></path>
                <path d="M30.7889879,44.5629313 C30.3416808,44.5629313 29.9786889,44.1999394 29.9786889,43.7527273 L29.9786889,32.409396 C29.9786889,31.9621838 30.3416808,31.5991919 30.7889879,31.5991919 C31.2362,31.5991919 31.5991919,31.9621838 31.5991919,32.409396 L31.5991919,43.7527273 C31.5991919,44.1999394 31.2362,44.5629313 30.7889879,44.5629313" id="Fill-4" fill="#E36E6F"></path>
                <path d="M29.9786889,6.48229697 L14.5842424,6.48229697 C14.1370303,6.48229697 13.7740384,6.11930505 13.7740384,5.67199798 L13.7740384,0.810583838 C13.7740384,0.362517172 14.1370303,0.00037979798 14.5842424,0.00037979798 L29.9786889,0.00037979798 C30.425996,0.00037979798 30.7889879,0.362517172 30.7889879,0.810583838 L30.7889879,5.67199798 C30.7889879,6.11930505 30.425996,6.48229697 29.9786889,6.48229697 Z M15.3944465,4.86179394 L29.1684848,4.86179394 L29.1684848,1.62088283 L15.3944465,1.62088283 L15.3944465,4.86179394 Z" id="Fill-5" fill="#E36E6F"></path>
                <path d="M18.6354525,17.0149495 C18.1881455,17.0149495 17.8251535,16.6519576 17.8251535,16.2046505 L17.8251535,13.7739434 C17.8251535,13.3267313 18.1881455,12.9637394 18.6354525,12.9637394 C19.0826646,12.9637394 19.4456566,13.3267313 19.4456566,13.7739434 L19.4456566,16.2046505 C19.4456566,16.6519576 19.0826646,17.0149495 18.6354525,17.0149495" id="Fill-6" fill="#E36E6F"></path>
                <path d="M21.8763636,18.6353576 C21.4291515,18.6353576 21.0661596,18.2723657 21.0661596,17.8251535 L21.0661596,15.3944465 C21.0661596,14.9472343 21.4291515,14.5842424 21.8763636,14.5842424 C22.3235758,14.5842424 22.6865677,14.9472343 22.6865677,15.3944465 L22.6865677,17.8251535 C22.6865677,18.2723657 22.3235758,18.6353576 21.8763636,18.6353576" id="Fill-7" fill="#E36E6F"></path>
                <path d="M25.1172747,17.8251535 C24.6700626,17.8251535 24.3070707,17.4621616 24.3070707,17.0149495 L24.3070707,14.5842424 C24.3070707,14.1369354 24.6700626,13.7739434 25.1172747,13.7739434 C25.5645818,13.7739434 25.9275737,14.1369354 25.9275737,14.5842424 L25.9275737,17.0149495 C25.9275737,17.4621616 25.5645818,17.8251535 25.1172747,17.8251535" id="Fill-8" fill="#E36E6F"></path>
                <path d="M23.4968667,21.0660646 C22.4516626,21.0660646 21.8245212,20.4397778 21.4696,19.6878727 C21.1187616,19.8523253 20.7071556,19.9439515 20.2558606,19.9439515 C19.3103535,19.9439515 18.5276848,19.3062707 18.1225354,18.5089798 C17.7943899,18.7050505 17.420099,18.822598 17.0149495,18.822598 C15.6748323,18.822598 14.5842424,17.7879333 14.5842424,16.5166545 L14.5842424,5.67161818 C14.5842424,5.22440606 14.9472343,4.86141414 15.3944465,4.86141414 L28.3582808,4.86141414 C28.6045798,4.86141414 28.8371111,4.9731697 28.9910242,5.16525253 L30.9445152,7.60725859 C31.8892626,8.7886202 32.409396,10.2713515 32.409396,11.7832323 L32.409396,13.7188727 C32.409396,15.0898485 31.294499,16.2046505 29.9236182,16.2046505 L29.1684848,16.2046505 L29.1684848,18.3858303 C29.1684848,19.6578687 28.0778949,20.6926283 26.7377778,20.6926283 C26.2110929,20.6926283 25.7347313,20.4989313 25.3458182,20.1926242 C24.8539798,20.8878444 24.1199253,21.0660646 23.4968667,21.0660646 M21.8763636,17.0149495 C22.3235758,17.0149495 22.6865677,17.3779414 22.6865677,17.8251535 C22.6865677,17.8389212 22.7319535,19.4456566 23.4968667,19.4456566 C23.8736263,19.4456566 24.1101455,19.4067273 24.235004,18.6321293 C24.2843778,18.324303 24.3070707,17.4857091 24.3070707,17.0149495 C24.3070707,16.5676424 24.6700626,16.2046505 25.1172747,16.2046505 C25.5645818,16.2046505 25.9275737,16.5676424 25.9275737,17.0149495 L25.9275737,18.1370626 C25.9275737,18.5454404 26.3204747,19.0721253 26.7377778,19.0721253 C27.1842303,19.0721253 27.5479818,18.764204 27.5479818,18.3858303 L27.5479818,15.3944465 C27.5479818,14.9472343 27.9109737,14.5842424 28.3582808,14.5842424 L29.9236182,14.5842424 C30.4008343,14.5842424 30.7889879,14.1960889 30.7889879,13.7188727 L30.7889879,11.7832323 C30.7889879,10.6375717 30.3951374,9.51460404 29.6789333,8.6192303 L27.9693677,6.48182222 L16.2047455,6.48182222 L16.2047455,16.5166545 C16.2047455,16.8950283 16.568497,17.2020949 17.0149495,17.2020949 C17.4168707,17.2020949 17.8251535,16.6219535 17.8251535,16.2046505 C17.8251535,15.7574384 18.1881455,15.3944465 18.6354525,15.3944465 C19.0826646,15.3944465 19.4456566,15.7574384 19.4456566,16.2046505 L19.4456566,17.3268586 C19.4456566,17.7433071 19.8540343,18.3234485 20.2558606,18.3234485 C20.3393212,18.3234485 21.0661596,18.3096808 21.0661596,17.8251535 C21.0661596,17.3779414 21.4291515,17.0149495 21.8763636,17.0149495" id="Fill-9" fill="#E36E6F"></path>
                <path d="M28.3582808,16.2046505 C27.9109737,16.2046505 27.5479818,15.8416586 27.5479818,15.3944465 L27.5479818,12.1535354 C27.5479818,11.7062283 27.9109737,11.3432364 28.3582808,11.3432364 C28.8054929,11.3432364 29.1684848,11.7062283 29.1684848,12.1535354 L29.1684848,15.3944465 C29.1684848,15.8416586 28.8054929,16.2046505 28.3582808,16.2046505" id="Fill-10" fill="#E36E6F"></path>
                <g id="Group-14" transform="translate(0.000000, 22.597980)">
                    <mask id="mask-2" fill="white">
                        <use xlink:href="#path-1"></use>
                    </mask>
                    <g id="Clip-12"></g>
                    <path d="M38.8911232,26.0161616 L8.1022303,26.0161616 C7.73031313,26.0161616 7.40615556,25.7625515 7.31623838,25.4027879 L2.45482424,5.95713131 C2.39405657,5.71491515 2.44922222,5.45798182 2.60228081,5.26191111 C2.75628889,5.06508081 2.99119394,4.95000202 3.24081616,4.95000202 L43.7525374,4.95000202 C44.0021596,4.95000202 44.2379192,5.06508081 44.3910727,5.26191111 C44.5449859,5.45798182 44.599297,5.71491515 44.5385293,5.95713131 L39.6771152,25.4027879 C39.587103,25.7625515 39.2630404,26.0161616 38.8911232,26.0161616 Z M8.73497374,24.3956586 L38.2583798,24.3956586 L42.7146444,6.57050505 L4.27870909,6.57050505 L8.73497374,24.3956586 Z" id="Fill-11" fill="#E36E6F" mask="url(#mask-2)"></path>
                    <path d="M46.1834343,6.57088485 L0.81020404,6.57088485 C0.362991919,6.57088485 0,6.20789293 0,5.76068081 L0,0.899266667 C0,0.4512 0.362991919,0.0889676768 0.81020404,0.0889676768 L46.1834343,0.0889676768 C46.6306465,0.0889676768 46.9936384,0.4512 46.9936384,0.899266667 L46.9936384,5.76068081 C46.9936384,6.20789293 46.6306465,6.57088485 46.1834343,6.57088485 Z M1.62050303,4.95038182 L45.3732303,4.95038182 L45.3732303,1.70947071 L1.62050303,1.70947071 L1.62050303,4.95038182 Z" id="Fill-13" fill="#E36E6F" mask="url(#mask-2)"></path>
                </g>
                <path d="M4.86065455,24.3070707 C4.69772121,24.3070707 4.53326869,24.257602 4.39065455,24.1563859 C4.02604848,23.8962242 3.94182828,23.3898586 4.20189495,23.0261071 L12.3042202,11.6827758 C12.4565192,11.4697091 12.7020586,11.3432364 12.9637394,11.3432364 L15.3944465,11.3432364 C15.8417535,11.3432364 16.2047455,11.7062283 16.2047455,12.1535354 C16.2047455,12.6007475 15.8417535,12.9637394 15.3944465,12.9637394 L13.3810424,12.9637394 L5.52093333,23.9675313 C5.36293737,24.1887636 5.1134101,24.3070707 4.86065455,24.3070707" id="Fill-15" fill="#E36E6F"></path>
                <path d="M42.1330788,24.3070707 C41.8802283,24.3070707 41.630701,24.1887636 41.4727051,23.9675313 L33.612596,12.9637394 L31.5991919,12.9637394 C31.1519798,12.9637394 30.7889879,12.6007475 30.7889879,12.1535354 C30.7889879,11.7062283 31.1519798,11.3432364 31.5991919,11.3432364 L34.029899,11.3432364 C34.2915798,11.3432364 34.5371192,11.4697091 34.6894182,11.6827758 L42.7917434,23.0261071 C43.0519051,23.3898586 42.9675899,23.8962242 42.6029838,24.1563859 C42.4603697,24.257602 42.2959172,24.3070707 42.1330788,24.3070707" id="Fill-16" fill="#E36E6F"></path>
            </g>
        </g>
    </g>
</svg>