<?xml version="1.0" encoding="UTF-8"?>
<svg width="78px" height="78px" viewBox="0 0 78 78" version="1.1" xmlns="http://www.w3.org/2000/svg" xmlns:xlink="http://www.w3.org/1999/xlink">
    <!-- Generator: Sketch 51.2 (57519) - http://www.bohemiancoding.com/sketch -->
    <title>reward</title>
    <desc>Created with Sketch.</desc>
    <defs>
        <polygon id="path-1" points="0 0 29.9022295 0 29.9022295 36.1967213 0 36.1967213"></polygon>
    </defs>
    <g id="desktop" stroke="none" stroke-width="1" fill="none" fill-rule="evenodd">
        <g id="credit_cards_homepage_category" transform="translate(-137.000000, -3313.000000)">
            <g id="reward" transform="translate(137.000000, 3313.000000)">
                <circle id="Oval" fill="#38AC70" cx="39" cy="39" r="39"></circle>
                <g id="badge" stroke-width="1" transform="translate(24.000000, 21.000000)">
                    <mask id="mask-2" fill="white">
                        <use xlink:href="#path-1"></use>
                    </mask>
                    <g id="Clip-2"></g>
                    <path d="M14.9508197,6.29508197 C17.9874098,6.29508197 20.4590164,8.76590164 20.4590164,11.8032787 C20.4590164,14.8406557 17.9874098,17.3114754 14.9508197,17.3114754 C11.9142295,17.3114754 9.44262295,14.8406557 9.44262295,11.8032787 C9.44262295,8.76590164 11.9142295,6.29508197 14.9508197,6.29508197 Z M14.9508197,18.8852459 C18.8561311,18.8852459 22.0327869,15.7078033 22.0327869,11.8032787 C22.0327869,7.8987541 18.8561311,4.72131148 14.9508197,4.72131148 C11.0455082,4.72131148 7.86885246,7.8987541 7.86885246,11.8032787 C7.86885246,15.7078033 11.0455082,18.8852459 14.9508197,18.8852459 Z" id="Fill-1" fill="#FFFFFF" mask="url(#mask-2)"></path>
                    <path d="M7.37154098,20.852459 C7.39121311,20.8689836 7.4132459,20.8839344 7.43291803,20.900459 C7.49586885,20.9523934 7.56196721,20.9996066 7.62570492,21.0507541 C7.8397377,21.2207213 8.05770492,21.3828197 8.28118033,21.5362623 C8.37245902,21.5992131 8.46452459,21.6598033 8.55737705,21.7196066 C8.7784918,21.8628197 9.00354098,21.9965902 9.23252459,22.1240656 C9.31042623,22.1673443 9.3867541,22.2137705 9.46544262,22.2546885 C9.7707541,22.4152131 10.0807869,22.5631475 10.3986885,22.6961311 C10.4608525,22.7220984 10.5245902,22.7433443 10.587541,22.7677377 C10.848,22.8716066 11.1116066,22.9660328 11.3791475,23.0510164 C11.4822295,23.0832787 11.5853115,23.1139672 11.6891803,23.143082 C11.938623,23.2146885 12.1912131,23.2776393 12.4461639,23.3319344 C12.5366557,23.3516066 12.6271475,23.3736393 12.7184262,23.3917377 C13.0457705,23.4546885 13.3762623,23.506623 13.7099016,23.5420328 L8.6557377,33.6503607 L6.99934426,30.3367869 C6.86321311,30.0645246 6.58701639,29.9016393 6.29508197,29.9016393 C6.22347541,29.9016393 6.15029508,29.911082 6.07947541,29.9323279 L2.29140984,31.0142951 L7.37154098,20.852459 Z M14.9508197,1.57377049 C20.5912131,1.57377049 25.1803279,6.16288525 25.1803279,11.8032787 C25.1803279,14.5282623 24.1156721,17.0974426 22.1854426,19.035541 C20.2457705,20.9681311 17.6765902,22.0327869 14.9508197,22.0327869 C14.6100984,22.0327869 14.2717377,22.0162623 13.9373115,21.9832131 C13.5721967,21.9470164 13.2118033,21.888 12.8553443,21.8140328 C10.9266885,21.4127213 9.14990164,20.4637377 7.71698361,19.0371148 C5.78518033,17.0966557 4.72131148,14.5274754 4.72131148,11.8032787 C4.72131148,6.16288525 9.31042623,1.57377049 14.9508197,1.57377049 Z M23.8221639,29.9323279 C23.4570492,29.8260984 23.0714754,29.9984262 22.9022951,30.3367869 L21.2459016,33.6503607 L16.1917377,23.5420328 C16.5261639,23.5074098 16.8558689,23.4546885 17.1832131,23.3917377 C17.2744918,23.3744262 17.3641967,23.3516066 17.4554754,23.3319344 C17.7104262,23.2768525 17.9630164,23.2139016 18.2132459,23.1422951 C18.3163279,23.1131803 18.418623,23.0832787 18.520918,23.0510164 C18.7916066,22.9652459 19.0583607,22.8700328 19.3211803,22.7645902 C19.3809836,22.7409836 19.4415738,22.7205246 19.501377,22.6961311 C19.8200656,22.5631475 20.132459,22.4136393 20.4393443,22.2523279 C20.5148852,22.2129836 20.5872787,22.1681311 20.6620328,22.1272131 C20.8957377,21.997377 21.1247213,21.860459 21.3497705,21.7148852 C21.4394754,21.6566557 21.5291803,21.5976393 21.6173115,21.5370492 C21.8455082,21.380459 22.0689836,21.2144262 22.2869508,21.0405246 C22.3467541,20.9933115 22.4081311,20.9492459 22.4671475,20.900459 C22.4876066,20.8831475 22.5096393,20.8681967 22.5300984,20.8516721 L27.6110164,31.0142951 L23.8221639,29.9323279 Z M0.180983607,32.7651148 C0.380852459,33.0059016 0.701901639,33.1042623 1.0024918,33.0192787 L5.8827541,31.624918 L7.95147541,35.7623607 C8.0852459,36.0283279 8.3575082,36.1967213 8.6557377,36.1967213 C8.95396721,36.1967213 9.22622951,36.0283279 9.36,35.7615738 L14.9508197,24.5791475 L20.5416393,35.7615738 C20.6754098,36.0283279 20.9476721,36.1967213 21.2459016,36.1967213 C21.5441311,36.1967213 21.8163934,36.0283279 21.9501639,35.7615738 L24.0188852,31.6241311 L28.8991475,33.0184918 C29.1981639,33.1026885 29.5207869,33.0043279 29.7206557,32.7643279 C29.9197377,32.5243279 29.959082,32.1891148 29.8190164,31.9097705 L23.7104262,19.693377 C25.6697705,17.5152787 26.7540984,14.7422951 26.7540984,11.8032787 C26.7540984,5.29495082 21.4591475,0 14.9508197,0 C8.4424918,0 3.14754098,5.29495082 3.14754098,11.8032787 C3.14754098,14.7415082 4.23108197,17.5137049 6.19121311,19.693377 L0.0826229508,31.9105574 C-0.0566557377,32.1899016 -0.0173114754,32.5243279 0.180983607,32.7651148 Z" id="Fill-3" fill="#FFFFFF" mask="url(#mask-2)"></path>
                </g>
            </g>
        </g>
    </g>
</svg>